Movielens
…
weighted_rating <- function(R, v, m, C) {
    return (v/(v+m))*R + (m/(v+m))*C
}

# R = average for the movie (mean) = (Rating)
# v = number of votes for the movie = (votes)
# m = minimum votes required to be listed in the Top 250
# C = the mean vote across the whole report
avg_rating <- avg_rating %>%
    mutate(wr = weighted_rating(mean, count, 500, mean(mean))) %>%
    arrange(desc(wr))

avg_rating 

## # A tibble: 9,686 x 8
##    movieId title                         year count  mean   min   max    wr
##      <dbl> <chr>                        <int> <int> <dbl> <dbl> <dbl> <dbl>
##  1     356 Forrest Gump                  1994   329  4.16   0.5     5 0.397
##  2     318 Shawshank Redemption, The     1994   317  4.43   1       5 0.388
##  3     296 Pulp Fiction                  1994   307  4.20   0.5     5 0.380
##  4     593 Silence of the Lambs, The     1991   279  4.16   0.5     5 0.358
##  5    2571 Matrix, The                   1999   278  4.19   0.5     5 0.357
##  6     260 Star Wars: Episode IV - A N~  1977   251  4.23   0.5     5 0.334
##  7     480 Jurassic Park                 1993   238  3.75   0.5     5 0.322
##  8     110 Braveheart                    1995   237  4.03   0.5     5 0.322
##  9     589 Terminator 2: Judgment Day    1991   224  3.97   0.5     5 0.309
## 10     527 Schindler's List              1993   220  4.22   0.5     5 0.306
## # ... with 9,676 more rows
…
